R Client Library for CloudOS • cloudos
…
Check the available filter values/range using cb_get_filter_statistics()

Now use this information to make your filter_query

There are two possible type of filter_query

Range based

Value based

Range based

For filter_id = 22

# A tibble: 1,880 x 3
   `_id`      number total
   <chr>       <int> <int>
 1 1938-12-25      1 44660
 2 1998-07-07      1 44660
 3 2000-12-04      1 44660
 4 2003-12-24      1 44660
 5 2004-07-20      1 44660
 6 2004-10-21      1 44660
 7 2004-11-01      1 44660
 8 2004-11-03      1 44660
 9 2005-01-07      1 44660
10 2005-02-27      1 44660
# … with 1,870 more rows
…
