…
#### Apply phenotypic filter

We can get statistic of sample numbers in a cohort for which a filter is
applied.

``` r
# phenotype filter
cohort_with_filters <- cloudos::cb_get_filter_statistics(my_cloudos, 
                                     cohort = my_cohort, 
                                     filter_id = my_phenotypic_filter$id)
cohort_with_filters
#> # A tibble: 85 x 3
#>    `_id`                               number total
#>    <chr>                                <int> <int>
#>  1 (All) Acute Lymphoblastic Leukaemia     46  4449
#>  2 (Aml) Acute Myeloid Leukaemia           55  4449
#>  3 Acral Lentiginous                        1  4449
#>  4 Adamantinoma Of Bone                     7  4449
#>  5 Adenocarcinoma                         982  4449
#>  6 Anaplastic Astrocytoma                  11  4449
#>  7 Anaplastic Oligodendroglioma             5  4449
#>  8 Angiosarcoma                             3  4449
#>  9 Biliary Adenocarcinoma                   1  4449
#> 10 Carcinosarcoma                          12  4449
#> # … with 75 more rows
```
…
There are two possible type of `filter_query`

  - Range based
  - Value based

**Range based**

For filter\_id = 22

``` r
# A tibble: 1,880 x 3
   `_id`      number total
   <chr>       <int> <int>
 1 1938-12-25      1 44660
 2 1998-07-07      1 44660
 3 2000-12-04      1 44660
 4 2003-12-24      1 44660
 5 2004-07-20      1 44660
 6 2004-10-21      1 44660
 7 2004-11-01      1 44660
 8 2004-11-03      1 44660
 9 2005-01-07      1 44660
10 2005-02-27      1 44660
# … with 1,870 more rows
```
…
