{
    "total": 2347494,
    "page": 0,
    "pages": 234750,
    "participants": [
        {
            "_id": "5f58a6c602afbc43f89cd21e",
            "index": "12",
            "Chromosome": "1",
            "Location": "1:100011443",
            "Reference": "G",
            "Alternative": "T",
            "Gene": "AC118553.2; SLC35A3",
            "cn": "zzg_m_1_12"
        },
        {
            "_id": "5f58a6c602afbc43f89cd21f",
            "index": "2",
            "Chromosome": "1",
            "Location": "1:100007041",
            "Reference": "A",
            "Alternative": "G",
            "Gene": "AC118553.2; SLC35A3",
            "cn": "zzg_m_1_2"
        },
        {
            "_id": "5f58a6c602afbc43f89cd220",
            "index": "1",
            "Chromosome": "1",
            "Location": "1:100007040",
            "Reference": "T",
            "Alternative": "G",
            "Gene": "AC118553.2; SLC35A3",
            "cn": "zzg_m_1_1"
        },
        {
            "_id": "5f58a6c602afbc43f89cd221",
            "index": "13",
            "Chromosome": "1",
            "Location": "1:100015306",
            "Reference": "C",
            "Alternative": "A",
            "Gene": "AC118553.2; SLC35A3",
            "cn": "zzg_m_1_13"
        },
        {
            "_id": "5f58a6c602afbc43f89cd222",
            "index": "14",
            "Chromosome": "1",
            "Location": "1:100015331",
            "Reference": "G",
            "Alternative": "A",
            "Gene": "AC118553.2; SLC35A3",
            "cn": "zzg_m_1_14"
        },
        {
            "_id": "5f58a6c602afbc43f89cd223",
            "index": "15",
            "Chromosome": "1",
            "Location": "1:100015347",
            "Reference": "A",
            "Alternative": "T",
            "Gene": "AC118553.2; SLC35A3",
            "cn": "zzg_m_1_15"
        },
        {
            "_id": "5f58a6c602afbc43f89cd224",
            "index": "17",
            "Chromosome": "1",
            "Location": "1:100015380",
            "Reference": "A",
            "Alternative": "T",
            "Gene": "AC118553.2; SLC35A3",
            "cn": "zzg_m_1_17"
        },
        {
            "_id": "5f58a6c602afbc43f89cd225",
            "index": "16",
            "Chromosome": "1",
            "Location": "1:100015371",
            "Reference": "G",
            "Alternative": "T",
            "Gene": "AC118553.2; SLC35A3",
            "cn": "zzg_m_1_16"
        },
        {
            "_id": "5f58a6c602afbc43f89cd226",
            "index": "20",
            "Chromosome": "1",
            "Location": "1:100017678",
            "Reference": "T",
            "Alternative": "G",
            "Gene": "SLC35A3",
            "cn": "zzg_m_1_20"
        },
        {
            "_id": "5f58a6c602afbc43f89cd227",
            "index": "19",
            "Chromosome": "1",
            "Location": "1:100015429",
            "Reference": "T",
            "Alternative": "G",
            "Gene": "SLC35A3",
            "cn": "zzg_m_1_19"
        }
    ]
}
